
hostname: app.horasoee.eu
root pass: stalas@2019
IP pasikeisti su komanda: nmtui
apache config'as: /etc/httpd/conf/httpd.conf
apache web dir: /var/www/html/
FTP user i /var/www/html/: oeefast
FTP pass: 2SyuZrAr9bzHi
FTP user i /home/dbbackups/: dbbackups
FTP pass: MLcc4WptBaCbvCV

#########################################################################################

hostname: db.horasoee.eu
root pass: langas@2019
IP pasikeisti su komanda: nmtui
pasikeisti default gw: route add default gw 192.168.0.1
turi eiti ping'as
 
SQL root pass: cat /root/.my.cnf
SQL susikurti user ,DB ir leisti is app IP (pakeisti tik IP adresa i app serverio):
CREATE DATABASE dbname;
GRANT ALL PRIVILEGES ON dbname.* TO dbname@'192.168.1.1' IDENTIFIED BY 'password';
flush privileges;


SSH AP:  88.119.96.130:7040
SSH DB:  88.119.96.130:7041

https://88.119.96.130:8443/
https://horas.Emjmetals.lt:8443/
http://88.119.96.130:8080/


horas.Emjmetals.lt --- IP: 172.33.1.240    app serveris
horasdb.Emjmetals.lt --- IP: 172.33.1.241  DB serveris
